<?xml version="1.0" encoding="UTF-8"?>
<svg width="153px" height="24px" viewBox="0 0 153 24" version="1.1" xmlns="http://www.w3.org/2000/svg" xmlns:xlink="http://www.w3.org/1999/xlink">
    <!-- Generator: Sketch 49 (51002) - http://www.bohemiancoding.com/sketch -->
    <title>Group 3</title>
    <desc>Created with Sketch.</desc>
    <defs></defs>
    <g id="Desktop" stroke="none" stroke-width="1" fill="none" fill-rule="evenodd">
        <g id="-1--HOME" transform="translate(-1302.000000, -4353.000000)">
            <g id="BLOQUE-/-FOOTER-Copy" transform="translate(0.000000, 4280.000000)">
                <g id="Group-3" transform="translate(1302.000000, 73.000000)">
                    <g id="Group-2-Copy" transform="translate(0.000000, 0.583099)">
                        <g id="Group-4" transform="translate(31.000000, 6.059419)" fill="#FFFFFF">
                            <path d="M12.436282,7.32195359 C12.2237453,8.54245231 11.3405373,11.4950205 6.25645007,11.4950205 C2.75510509,11.4950205 0,9.56663251 0,5.57430329 C0,2.38023218 2.02408387,0 6.4238555,0 C11.3709747,0 12.1014711,3.17900964 12.2694013,3.76640711 L10.1078246,3.76640711 C9.9855504,3.38987027 9.13330456,1.83801913 6.54508013,1.83801913 C3.48560152,1.83801913 2.20723276,3.54048501 2.20723276,5.81580623 C2.20723276,8.33107231 4.04921731,9.65700135 6.4238555,9.65700135 C8.95015567,9.65700135 10.0621686,8.16539611 10.27523,7.32195359 L12.436282,7.32195359 Z" id="Fill-18"></path>
                            <path d="M29.0209451,5.70985656 C29.0209451,3.07357933 27.1180859,1.83801913 24.5912609,1.83801913 C22.0639112,1.83801913 20.1615767,3.07357933 20.1615767,5.70985656 C20.1615767,8.81355883 22.5209963,9.65700135 24.5912609,9.65700135 C26.6615256,9.65700135 29.0209451,8.81355883 29.0209451,5.70985656 M24.5912609,0 C29.4622867,0 31.1825219,2.83207639 31.1825219,5.82982898 C31.1825219,8.10463085 29.8275349,11.4950205 24.5912609,11.4950205 C19.3544621,11.4950205 18,8.10463085 18,5.82982898 C18,2.83207639 19.7197104,0 24.5912609,0" id="Fill-19"></path>
                            <polygon id="Fill-20" points="38 0 40.2833261 0 47.6811769 7.90935106 47.6811769 0 49.7519664 0 49.7519664 10.9522881 47.7724889 10.9522881 40.0697399 2.75728838 40.0697399 10.9522881 38 10.9522881"></polygon>
                            <polygon id="Fill-21" points="57 0 66.9252005 0 66.9252005 1.83801913 59.1615767 1.83801913 59.1615767 4.38340816 65.8446745 4.38340816 65.8446745 6.2214273 59.1615767 6.2214273 59.1615767 9.11426894 67.1078246 9.11426894 67.1078246 10.9522881 57 10.9522881"></polygon>
                            <polygon id="Fill-22" points="73 0 75.2838509 0 82.6811769 7.90935106 82.6811769 0 84.7519664 0 84.7519664 10.9522881 82.7730137 10.9522881 75.0702647 2.75728838 75.0702647 10.9522881 73 10.9522881"></polygon>
                            <polygon id="Fill-23" points="95.947644 1.83801913 91 1.83801913 91 0 103.05634 0 103.05634 1.83801913 98.1086959 1.83801913 98.1086959 10.9522881 95.947644 10.9522881"></polygon>
                            <path d="M119.020945,5.70985656 C119.020945,3.07357933 117.118611,1.83801913 114.591786,1.83801913 C112.064436,1.83801913 110.161577,3.07357933 110.161577,5.70985656 C110.161577,8.81355883 112.520996,9.65700135 114.591786,9.65700135 C116.66205,9.65700135 119.020945,8.81355883 119.020945,5.70985656 M114.591786,0 C119.462812,0 121.182522,2.83207639 121.182522,5.82982898 C121.182522,8.10463085 119.82806,11.4950205 114.591786,11.4950205 C109.354987,11.4950205 108,8.10463085 108,5.82982898 C108,2.83207639 109.720235,0 114.591786,0" id="Fill-24"></path>
                        </g>
                        <path d="M8.35020959,7.75196642 L18.3707755,0 L15.2485591,12.5645161 L13.304886,7.76665931 L8.35020959,7.75196642 Z M14.2097197,1.49153778 C13.7369662,1.35972161 13.129028,1.29213434 12.3548598,1.29213434 C6.80324862,1.29213434 2.30285565,6.09964649 2.30285565,12.0301149 C2.30992926,12.0338931 2.31621692,12.0376712 2.32368352,12.0414494 C2.33940267,16.8523199 5.99331936,20.7467742 10.5,20.7467742 C15.0165051,20.7467742 18.6778884,16.8359479 18.6778884,12.011224 C18.6778884,11.7547282 18.6641341,11.5015908 18.6436992,11.2509722 C18.6362326,11.1581971 18.629552,11.0650022 18.6193346,10.9730667 C18.610296,10.8954043 18.5985067,10.8185815 18.5878963,10.7413389 C18.5761069,10.6561202 18.5654965,10.5704817 18.5513492,10.4856827 C18.536809,10.398365 18.519125,10.3123067 18.5022269,10.2258286 C18.4880796,10.1536235 18.4751113,10.0814185 18.4593922,10.0104728 C18.4377784,9.9122404 18.4126277,9.81526735 18.3878701,9.71787451 C18.3729369,9.66078216 18.3599686,9.60285021 18.3442494,9.54575785 C18.314776,9.43996908 18.2821588,9.33585949 18.2491485,9.2317499 C18.2342154,9.18431287 18.2208541,9.13687584 18.2051349,9.0898586 C18.1689809,8.98197084 18.129683,8.87618207 18.0899921,8.77039329 C18.07388,8.72799382 18.0593398,8.68559435 18.0432277,8.64361468 C18.0023579,8.53992489 17.9583442,8.43791428 17.9139376,8.33632347 C17.9029342,8.31113567 17.889573,8.28678746 17.8785696,8.26159965 L18.6904637,5.00901459 C18.7576631,5.10011048 18.8276133,5.18868759 18.8928478,5.28146266 L18.8944197,5.2768449 C18.906602,5.29363677 18.9168195,5.31210783 18.9286089,5.32931949 C19.0241027,5.46659302 19.1129159,5.6101635 19.202908,5.7524746 C19.2665706,5.85322581 19.332984,5.95187804 19.3938957,6.05514804 C19.4795651,6.2012373 19.5581609,6.35236412 19.6375426,6.50265135 C19.6945245,6.60969952 19.7538643,6.7150685 19.8073094,6.82421565 C19.8796175,6.9715643 19.944459,7.12395051 20.0104794,7.27549713 C20.0627456,7.39471941 20.1177626,7.51226249 20.166099,7.63400354 C20.223081,7.77757402 20.2725963,7.92492268 20.3240765,8.07143173 C20.3720199,8.20744588 20.4219282,8.34220063 20.4651559,8.48073355 C20.5075976,8.61716748 20.5425727,8.7569598 20.5802987,8.89591251 C20.6219544,9.04997791 20.6651821,9.20278392 20.7009431,9.3593681 C20.7304166,9.49034468 20.7532093,9.62384004 20.77836,9.75649581 C20.8109772,9.9248343 20.8439874,10.0923332 20.8691381,10.2631905 C20.888787,10.396266 20.9009693,10.5314406 20.9162955,10.6661953 C20.9355515,10.838312 20.9559864,11.0100088 20.9681687,11.1842245 C20.9701336,11.2173884 20.9760283,11.249293 20.9779932,11.2824569 C20.9760283,11.2900133 20.9744564,11.2971498 20.9724915,11.3047062 C20.9862457,11.5389527 21,11.7731993 21,12.011224 C21,18.2057446 16.2991878,23.2277729 10.5,23.2277729 C4.70120513,23.2277729 0,18.2057446 0,12.011224 C0,5.8162837 4.70120513,0.794675211 10.5,0.794675211 C11.2973539,0.794675211 12.0707362,0.899204596 12.8166099,1.08013699 C13.3443804,1.19726027 14.2097197,1.49153778 14.2097197,1.49153778 Z" id="Combined-Shape" fill="#FF671D"></path>
                    </g>
                </g>
            </g>
        </g>
    </g>
</svg>