<?xml version="1.0" encoding="utf-8"?>
<!-- Generator: Adobe Illustrator 22.1.0, SVG Export Plug-In . SVG Version: 6.00 Build 0)  -->
<svg version="1.1" id="Capa_1" xmlns="http://www.w3.org/2000/svg" xmlns:xlink="http://www.w3.org/1999/xlink" x="0px" y="0px"
	 viewBox="0 0 16 9.3" style="enable-background:new 0 0 16 9.3;" xml:space="preserve">
<style type="text/css">
	.st0{fill:#1F369B;}
</style>
<g>
	<path class="st0" d="M0,8.4C0,8.2,0.1,8,0.2,7.9l6.7-7.6C7.1,0.1,7.3,0,7.5,0C7.8,0,8,0.1,8.2,0.3l7.6,7.6c0.3,0.3,0.3,0.9,0,1.3
		c-0.3,0.3-0.9,0.3-1.3,0L7.6,2.2L1.6,9C1.2,9.4,0.7,9.4,0.3,9.1C0.1,8.9,0,8.7,0,8.4z"/>
</g>
</svg>
