<?xml version="1.0" encoding="UTF-8"?>
<svg width="19px" height="16px" viewBox="0 0 19 16" version="1.1" xmlns="http://www.w3.org/2000/svg" xmlns:xlink="http://www.w3.org/1999/xlink">
    <!-- Generator: Sketch 49 (51002) - http://www.bohemiancoding.com/sketch -->
    <title>Group 5</title>
    <desc>Created with Sketch.</desc>
    <defs></defs>
    <g id="Desktop" stroke="none" stroke-width="1" fill="none" fill-rule="evenodd">
        <g id="-1--HOME" transform="translate(-1302.000000, -4435.000000)" fill="#FFFFFF" fill-rule="nonzero">
            <g id="BLOQUE-/-FOOTER-Copy" transform="translate(0.000000, 4280.000000)">
                <g id="Group-5" transform="translate(1302.000000, 155.000000)">
                    <path d="M17.1,0.121126761 L1.9,0.121126761 C0.855,0.121126761 0.0095,0.960123239 0.0095,1.98556338 L0,13.1721831 C0,14.1976232 0.855,15.0366197 1.9,15.0366197 L17.1,15.0366197 C18.145,15.0366197 19,14.1976232 19,13.1721831 L19,1.98556338 C19,0.960123239 18.145,0.121126761 17.1,0.121126761 Z M17.1,3.85 L9.5,8.51109155 L1.9,3.85 L1.9,1.98556338 L9.5,6.64665493 L17.1,1.98556338 L17.1,3.85 Z" id="Shape"></path>
                </g>
            </g>
        </g>
    </g>
</svg>