<?xml version="1.0" encoding="UTF-8"?>
<svg width="13px" height="13px" viewBox="0 0 13 13" version="1.1" xmlns="http://www.w3.org/2000/svg" xmlns:xlink="http://www.w3.org/1999/xlink">
    <!-- Generator: Sketch 49.2 (51160) - http://www.bohemiancoding.com/sketch -->
    <title>Group 8</title>
    <desc>Created with Sketch.</desc>
    <defs></defs>
    <g id="Symbols" stroke="none" stroke-width="1" fill="none" fill-rule="evenodd">
        <g id="BLOQUE-/-INTRO-IMG" transform="translate(-72.000000, -460.000000)" fill="#2D2A26">
            <g id="Group" transform="translate(0.000000, 458.000000)">
                <g id="Group-8" transform="translate(72.000000, 2.000000)">
                    <circle id="Oval-3-Copy-2" cx="6.5" cy="6.5" r="6"></circle>
                </g>
            </g>
        </g>
    </g>
</svg>