<?xml version="1.0" encoding="UTF-8"?>
<svg width="11px" height="24px" viewBox="0 0 11 24" version="1.1" xmlns="http://www.w3.org/2000/svg" xmlns:xlink="http://www.w3.org/1999/xlink">
    <!-- Generator: Sketch 50.2 (55047) - http://www.bohemiancoding.com/sketch -->
    <title>Group 4</title>
    <desc>Created with Sketch.</desc>
    <defs></defs>
    <g id="Symbols" stroke="none" stroke-width="1" fill="none" fill-rule="evenodd">
        <g id="Bloque/Footer/Particulares" transform="translate(-1016.000000, -232.000000)" fill="#9D9D9D" fill-rule="nonzero">
            <g id="bloque-rrss" transform="translate(1016.000000, 232.000000)">
                <g id="Group-4">
                    <path d="M7.5625,4.5 L11,4.5 L11,0 L7.5625,0 C4.90875,0 2.75,2.355 2.75,5.25 L2.75,7.5 L0,7.5 L0,12 L2.75,12 L2.75,24 L6.875,24 L6.875,12 L10.3125,12 L11,7.5 L6.875,7.5 L6.875,5.25 C6.875,4.8435 7.189875,4.5 7.5625,4.5 Z" id="Shape"></path>
                </g>
            </g>
        </g>
    </g>
</svg>